Internationalization of the Music Industry
…
Code

# Calculate total streams per country
country_streams <- bigset%>%
  group_by(country) %>%
  summarise(total_streams = sum(streams, na.rm = TRUE)) %>%
  arrange(desc(total_streams))

# Display the ranked list of countries based on total streams
ranked_countries <- country_streams

# Print the ranked list
print(ranked_countries)

# A tibble: 73 × 2
   country total_streams
   <chr>           <dbl>
 1 GLOBAL   150185253434
 2 US        43731133113
 3 MX        28841315110
 4 BR        24143632402
 5 ID        20084042056
 6 IN        18920201227
 7 PH        13666606125
 8 DE        10057188577
 9 TR         9987584160
10 GB         9765639616
# ℹ 63 more rows
…
# Step 2: Group by track_id and track_name, sum streams, and count weeks in the global charts
global_songs_ranked <- global_songs %>%
  group_by(track_id, track_name) %>%
  summarise(
    total_streams = sum(streams, na.rm = TRUE),  # Sum the streams for each song
    weeks_in_chart = n_distinct(week_date),  # Count the number of distinct weeks the song was in the chart
    .groups = "drop"  # Drop grouping after summarising
  ) %>%
  arrange(desc(total_streams)) %>% # Sort by total streams in descending order
  select(-track_id)

print (n=15, global_songs_ranked)

# A tibble: 1,540 × 3
   track_name                                     total_streams weeks_in_chart
   <chr>                                                  <int>          <int>
 1 BIRDS OF A FEATHER                                1796520740             34
 2 Die With A Smile                                  1455445377             21
 3 Espresso                                          1318147517             24
 4 Lose Control                                      1293557047             54
 5 Beautiful Things                                  1243109891             40
 6 End of Beginning                                  1201325433             47
 7 Cruel Summer                                      1153626261             54
 8 we can't be friends (wait for your love)          1129256633             44
 9 Good Luck, Babe!                                  1118206219             40
10 Who                                               1107403865             25
11 greedy                                            1023362257             54
12 LUNA                                              1004122591             54
13 I Wanna Be Yours                                   998924555             54
14 Not Like Us                                        987073036             36
15 One Of The Girls (with JENNIE, Lily Rose Depp)     980203603             46
# ℹ 1,525 more rows
…
# Step 4: Join the first appearance with global chart data and filter for valid entries
first_to_global <- first_appearance %>%
  inner_join(global_appearance, by = "track_id", suffix = c("_national", "_global"), relationship = "many-to-many") %>%
  filter(week_date_national < week_date_global)

# Step 5: Count the frequency of each country being the first to chart a song before it reaches the global charts
country_frequency <- first_to_global %>%
  group_by(country) %>%
  summarise(frequency = n()) %>%
  arrange(desc(frequency))

# Output the ranked list of countries
print(country_frequency)

# A tibble: 72 × 2
   country frequency
   <chr>       <int>
 1 CA           6389
 2 US           6178
 3 GB           5965
 4 AE           5943
 5 AU           5870
 6 LV           5586
 7 IE           5559
 8 NZ           5353
 9 CH           5217
10 NO           5126
# ℹ 62 more rows
…
